{
  "npmScope": "fct",
  "implicitDependencies": {
    "angular.json": "*",
    "package.json": "*",
    "tsconfig.json": "*",
    "tslint.json": "*",
    "nx.json": "*"
  },
  "projects": {
    "auth-browser-e2e": {
      "tags": []
    },
    "auth-browser": {
      "tags": []
    },
    "ui-ng": {
      "tags": []
    },
    "auth-server": {
      "tags": []
    },
    "sdk": {
      "tags": []
    },
    "sdk-ng": {
      "tags": []
    },
    "auth-common": {
      "tags": []
    },
    "asap-browser-e2e": {
      "tags": []
    },
    "asap-browser": {
      "tags": []
    },
    "asap-server": {
      "tags": []
    },
    "asap-interfaces": {
      "tags": []
    },
    "auth-client": {
      "tags": ["frontend"]
    },
    "auth-sso": {
      "tags": []
    },
    "sdk-react": {
      "tags": []
    },
    "ui-react": {
      "tags": []
    },
    "ui-theme": {
      "tags": []
    },
    "auth-sso-react": {
      "tags": []
    },
    "auth-interfaces": {
      "tags": []
    }
  }
}
