<svg xmlns="http://www.w3.org/2000/svg" 
  viewBox="0 0 50 50" >
    <g stroke-width="2.5">
      <path 
        stroke="red"
        fill="transparent"
        d="
          M 6 5 
          C 3.8 5 3 5.2 3 8 
          L 3 17
          C 3 14 4 14 6 14 
          L 45 14
          C 46 14 47 14 47 17
          L 47 11
          C 47 9 45 9 45 9
          L 19.5 9
          C 17.5 9 17 9 16 7
          C 15 5 15 5 13 5 Z
        " />

      <path 
        stroke="blue"
        fill="transparent"
        d="
          M 3 17
          C 3 14 4 14 6 14 
          L 45 14
          C 46 14 47 14 47 17
          L 47 43
          C 47 45 45 45 45 45
          L 6 45
          C 4.5 45 3 45 3 43 Z
        " />
      <line x1="2" y1="14.5" x2="48" y2="14.5" stroke="yellow"/>
    </g>
</svg>
