<svg 
  xmlns="http://www.w3.org/2000/svg" 
  viewBox="0 0 50 50"
  [attr.width]="iconSizeComputed"
  [attr.height]="iconSizeComputed">
  <path 
    fill="none" 
    [attr.color-type]="iconColor" 
    [attr.color-hover]="iconColorHover"
    stroke-miterlimit="10" 
    [attr.stroke-width]="strokeWidthComputed" 
    d="M9 25L41 25M25 9L25 41"/>
</svg>